%YAML 1.1
%TAG !u! tag:unity3d.com,2011:
--- !u!114 &11400000
MonoBehaviour:
  m_ObjectHideFlags: 0
  m_CorrespondingSourceObject: {fileID: 0}
  m_PrefabInstance: {fileID: 0}
  m_PrefabAsset: {fileID: 0}
  m_GameObject: {fileID: 0}
  m_Enabled: 1
  m_EditorHideFlags: 0
  m_Script: {fileID: 11500000, guid: dfa6e791b05892d42a7f1bf8afd368f0, type: 3}
  m_Name: Ephesians 610-11
  m_EditorClassIdentifier: 
  title: Ephesians 6:10-11
  verse: "10 Finally, be strong in the Lord and in his mighty power. 11 Put on the
    full armor of God, so that you can take your stand against the devil\u2019s schemes."
  isBible: 1
