%YAML 1.1
%TAG !u! tag:unity3d.com,2011:
--- !u!114 &11400000
MonoBehaviour:
  m_ObjectHideFlags: 0
  m_CorrespondingSourceObject: {fileID: 0}
  m_PrefabInstance: {fileID: 0}
  m_PrefabAsset: {fileID: 0}
  m_GameObject: {fileID: 0}
  m_Enabled: 1
  m_EditorHideFlags: 0
  m_Script: {fileID: 11500000, guid: dfa6e791b05892d42a7f1bf8afd368f0, type: 3}
  m_Name: John 1010
  m_EditorClassIdentifier: 
  title: John 10:10
  verse: The thief comes only to steal and kill and destroy; I have come that they
    may have life, and have it to the full.
  isBible: 1
